<svg width="31" height="50" viewBox="0 0 31 50" fill="none" xmlns="http://www.w3.org/2000/svg">
<mask id="path-1-inside-1" fill="white">
<path fill-rule="evenodd" clip-rule="evenodd" d="M15.3333 30.5567C23.724 30.5567 30.5259 23.7547 30.5259 15.364C30.5259 6.97337 23.724 0.171387 15.3333 0.171387C6.94261 0.171387 0.140625 6.97337 0.140625 15.364C0.140625 23.7547 6.94261 30.5567 15.3333 30.5567ZM15.3329 30.6641C6.94244 30.7234 0.188709 37.5733 0.248024 45.9638C0.280503 50.5582 2.31009 49.1515 5.51749 46.9285C8.16757 45.0918 11.6217 42.6978 15.4178 42.6709C19.2139 42.6441 22.7015 44.989 25.3773 46.7881C28.6158 48.9656 30.6651 50.3434 30.6326 45.749C30.5733 37.3585 23.7234 30.6048 15.3329 30.6641Z"/>
</mask>
<path d="M0.248024 45.9638L-4.75185 45.9992L0.248024 45.9638ZM15.3329 30.6641L15.2976 25.6643L15.3329 30.6641ZM5.51749 46.9285L8.36571 51.038H8.36571L5.51749 46.9285ZM25.3773 46.7881L22.5875 50.9374H22.5875L25.3773 46.7881ZM30.6326 45.749L35.6325 45.7137L30.6326 45.749ZM25.5259 15.364C25.5259 20.9933 20.9625 25.5567 15.3333 25.5567V35.5567C26.4854 35.5567 35.5259 26.5161 35.5259 15.364H25.5259ZM15.3333 5.17139C20.9625 5.17139 25.5259 9.7348 25.5259 15.364H35.5259C35.5259 4.21195 26.4854 -4.82861 15.3333 -4.82861V5.17139ZM5.14062 15.364C5.14062 9.7348 9.70403 5.17139 15.3333 5.17139V-4.82861C4.18119 -4.82861 -4.85938 4.21195 -4.85938 15.364H5.14062ZM15.3333 25.5567C9.70403 25.5567 5.14062 20.9933 5.14062 15.364H-4.85938C-4.85938 26.5161 4.18119 35.5567 15.3333 35.5567V25.5567ZM5.2479 45.9285C5.2081 40.2994 9.73914 35.7038 15.3683 35.664L15.2976 25.6643C4.14574 25.7431 -4.83069 34.8473 -4.75185 45.9992L5.2479 45.9285ZM2.66928 42.8191C1.81474 43.4113 1.26679 43.787 0.834762 44.0378C0.633882 44.1545 0.564924 44.1801 0.595704 44.1679C0.608337 44.1628 0.901714 44.0414 1.38995 44.0118C1.93414 43.9789 2.75538 44.0624 3.5969 44.5516C4.42794 45.0348 4.87689 45.6801 5.08662 46.0907C5.27722 46.4637 5.30075 46.6947 5.28674 46.609C5.27594 46.5429 5.25077 46.3346 5.2479 45.9285L-4.75185 45.9992C-4.7426 47.3078 -4.62009 49.0712 -3.81854 50.6402C-3.36385 51.5302 -2.61394 52.508 -1.42913 53.1968C-0.233828 53.8917 0.993993 54.0541 1.99437 53.9935C3.71163 53.8896 5.14563 53.0983 5.8564 52.6856C6.70802 52.191 7.61655 51.5572 8.36571 51.038L2.66928 42.8191ZM15.3824 37.671C9.77244 37.7107 5.0335 41.1804 2.66928 42.8191L8.36571 51.038C11.3016 49.0031 13.471 47.6848 15.4531 47.6708L15.3824 37.671ZM28.1671 42.6388C25.78 41.0338 20.9924 37.6314 15.3824 37.671L15.4531 47.6708C17.4353 47.6568 19.623 48.9443 22.5875 50.9374L28.1671 42.6388ZM25.6327 45.7844C25.6356 46.1905 25.6134 46.3991 25.6035 46.4654C25.5907 46.5513 25.611 46.32 25.7963 45.9443C26.0002 45.5308 26.44 44.8792 27.2641 44.3843C28.0986 43.8832 28.9186 43.7881 29.4632 43.8134C29.9518 43.836 30.2468 43.9533 30.2595 43.9581C30.2905 43.97 30.2212 43.9453 30.0187 43.8315C29.5831 43.5868 29.0299 43.2189 28.1671 42.6388L22.5875 50.9374C23.3439 51.446 24.2613 52.0669 25.1198 52.5494C25.8363 52.952 27.2814 53.7229 28.9999 53.8026C30.0011 53.8491 31.2265 53.6693 32.4118 52.9576C33.5868 52.2521 34.3228 51.2638 34.7649 50.3674C35.5441 48.7873 35.6417 47.0223 35.6325 45.7137L25.6327 45.7844ZM15.3683 35.664C20.9974 35.6242 25.5929 40.1552 25.6327 45.7844L35.6325 45.7137C35.5536 34.5618 26.4494 25.5854 15.2976 25.6643L15.3683 35.664Z" fill="white" mask="url(#path-1-inside-1)"/>
</svg>
